// Jest Snapshot v1, https://goo.gl/fbAQLP

exports[`ManageAccountScreen-offline renders with cached account 1`] = `
<View
  collapsable={true}
  pointerEvents="box-none"
  style={
    Object {
      "flex": 1,
    }
  }
>
  <View
    collapsable={false}
    pointerEvents="box-none"
    style={
      Object {
        "flex": 1,
      }
    }
  >
    <View
      style={
        Object {
          "flex": 1,
        }
      }
    >
      <RNCSafeAreaProvider
        style={
          Array [
            Object {
              "flex": 1,
            },
            undefined,
          ]
        }
      >
        <View
          pointerEvents="box-none"
          style={
            Object {
              "zIndex": 1,
            }
          }
        >
          <View
            accessibilityElementsHidden={false}
            importantForAccessibility="auto"
            pointerEvents="box-none"
            style={null}
          >
            <View
              pointerEvents="box-none"
              style={
                Object {
                  "bottom": 0,
                  "left": 0,
                  "opacity": 1,
                  "position": "absolute",
                  "right": 0,
                  "top": 0,
                  "zIndex": 0,
                }
              }
            >
              <View
                style={
                  Object {
                    "backgroundColor": "rgb(255, 255, 255)",
                    "borderBottomColor": "rgb(216, 216, 216)",
                    "flex": 1,
                    "shadowColor": "rgb(216, 216, 216)",
                    "shadowOffset": Object {
                      "height": 0.5,
                      "width": 0,
                    },
                    "shadowOpacity": 0.85,
                    "shadowRadius": 0,
                  }
                }
              />
            </View>
            <View
              pointerEvents="box-none"
              style={
                Object {
                  "height": 64,
                  "maxHeight": undefined,
                  "minHeight": undefined,
                  "opacity": undefined,
                  "transform": undefined,
                }
              }
            >
              <View
                pointerEvents="none"
                style={
                  Object {
                    "height": 20,
                  }
                }
              />
              <View
                pointerEvents="box-none"
                style={
                  Object {
                    "alignItems": "center",
                    "flex": 1,
                    "flexDirection": "row",
                    "justifyContent": "center",
                  }
                }
              >
                <View
                  pointerEvents="box-none"
                  style={
                    Object {
                      "marginHorizontal": 16,
                      "opacity": 1,
                    }
                  }
                >
                  <Text
                    accessibilityRole="header"
                    aria-level="1"
                    numberOfLines={1}
                    style={
                      Object {
                        "color": "rgb(28, 28, 30)",
                        "fontSize": 17,
                        "fontWeight": "600",
                      }
                    }
                  >
                    testscreen
                  </Text>
                </View>
              </View>
            </View>
          </View>
        </View>
        <View
          style={
            Object {
              "flex": 1,
            }
          }
        >
          <View
            pointerEvents="box-none"
            style={
              Object {
                "bottom": 0,
                "left": 0,
                "position": "absolute",
                "right": 0,
                "top": 0,
              }
            }
          >
            <View
              collapsable={false}
              style={
                Object {
                  "opacity": 1,
                }
              }
            />
            <View
              accessibilityElementsHidden={false}
              closing={false}
              gestureVelocityImpact={0.3}
              importantForAccessibility="auto"
              pointerEvents="box-none"
              style={
                Array [
                  Object {
                    "overflow": undefined,
                  },
                  Object {
                    "bottom": 0,
                    "left": 0,
                    "position": "absolute",
                    "right": 0,
                    "top": 0,
                  },
                ]
              }
              transitionSpec={
                Object {
                  "close": Object {
                    "animation": "spring",
                    "config": Object {
                      "damping": 500,
                      "mass": 3,
                      "overshootClamping": true,
                      "restDisplacementThreshold": 10,
                      "restSpeedThreshold": 10,
                      "stiffness": 1000,
                    },
                  },
                  "open": Object {
                    "animation": "spring",
                    "config": Object {
                      "damping": 500,
                      "mass": 3,
                      "overshootClamping": true,
                      "restDisplacementThreshold": 10,
                      "restSpeedThreshold": 10,
                      "stiffness": 1000,
                    },
                  },
                }
              }
            >
              <View
                needsOffscreenAlphaCompositing={false}
                pointerEvents="box-none"
                style={
                  Object {
                    "flex": 1,
                  }
                }
              >
                <View
                  enabled={false}
                  hitSlop={
                    Object {
                      "right": -700,
                    }
                  }
                  maxDeltaY={20}
                  minOffsetX={5}
                >
                  <View
                    style={
                      Object {
                        "flex": 1,
                        "transform": Array [
                          Object {
                            "translateX": 0,
                          },
                          Object {
                            "translateX": 0,
                          },
                        ],
                      }
                    }
                  >
                    <View
                      pointerEvents="none"
                      style={
                        Object {
                          "backgroundColor": "rgb(242, 242, 242)",
                          "bottom": 0,
                          "left": 0,
                          "position": "absolute",
                          "shadowColor": "#000",
                          "shadowOffset": Object {
                            "height": 1,
                            "width": -1,
                          },
                          "shadowOpacity": 0.3,
                          "shadowRadius": 5,
                          "top": 0,
                          "width": 3,
                        }
                      }
                    />
                    <View
                      style={
                        Array [
                          Object {
                            "flex": 1,
                            "overflow": "hidden",
                          },
                          Array [
                            Object {
                              "backgroundColor": "rgb(242, 242, 242)",
                            },
                            undefined,
                          ],
                        ]
                      }
                    >
                      <View
                        style={
                          Object {
                            "flex": 1,
                            "flexDirection": "column-reverse",
                          }
                        }
                      >
                        <View
                          style={
                            Object {
                              "flex": 1,
                            }
                          }
                        >
                          <RCTScrollView
                            keyboardShouldPersistTaps="handled"
                            style={
                              Object {
                                "flex": 1,
                              }
                            }
                          >
                            <View>
                              <RCTScrollView
                                keyboardShouldPersistTaps="handled"
                                style={
                                  Object {
                                    "flex": 1,
                                    "padding": 10,
                                  }
                                }
                              >
                                <View>
                                  <View
                                    style={
                                      Object {
                                        "alignItems": "center",
                                        "display": "flex",
                                        "flexDirection": "row",
                                        "justifyContent": "flex-start",
                                        "marginVertical": 10,
                                      }
                                    }
                                  >
                                    <View
                                      style={
                                        Array [
                                          Object {
                                            "backgroundColor": "rgb(231, 231, 231)",
                                            "borderTopLeftRadius": 4,
                                            "borderTopRightRadius": 4,
                                          },
                                          Object {
                                            "width": 225,
                                          },
                                        ]
                                      }
                                    >
                                      <View
                                        style={
                                          Object {
                                            "backgroundColor": "rgba(0, 0, 0, 0.26)",
                                            "bottom": 0,
                                            "height": 2,
                                            "left": 0,
                                            "position": "absolute",
                                            "right": 0,
                                            "transform": Array [
                                              Object {
                                                "scaleY": 0.5,
                                              },
                                            ],
                                          }
                                        }
                                      />
                                      <View
                                        style={
                                          Object {
                                            "minHeight": 64,
                                            "paddingBottom": 0,
                                            "paddingTop": 0,
                                          }
                                        }
                                      >
                                        <View
                                          pointerEvents="none"
                                          style={
                                            Object {
                                              "bottom": 0,
                                              "left": 0,
                                              "opacity": 0,
                                              "position": "absolute",
                                              "right": 0,
                                              "top": 0,
                                              "transform": Array [
                                                Object {
                                                  "translateX": 3,
                                                },
                                              ],
                                            }
                                          }
                                        >
                                          <Text
                                            numberOfLines={1}
                                            style={
                                              Object {
                                                "color": "#6200ee",
                                                "fontFamily": "System",
                                                "fontSize": 16,
                                                "fontWeight": undefined,
                                                "left": 0,
                                                "opacity": 0,
                                                "paddingHorizontal": 12,
                                                "position": "absolute",
                                                "textAlign": "left",
                                                "top": 34,
                                                "transform": Array [
                                                  Object {
                                                    "translateX": 0,
                                                  },
                                                  Object {
                                                    "translateY": -16,
                                                  },
                                                  Object {
                                                    "scale": 0.75,
                                                  },
                                                ],
                                                "writingDirection": "ltr",
                                              }
                                            }
                                          >
                                            Vorname
                                          </Text>
                                          <Text
                                            numberOfLines={1}
                                            style={
                                              Object {
                                                "color": "rgba(0, 0, 0, 0.54)",
                                                "fontFamily": "System",
                                                "fontSize": 16,
                                                "fontWeight": undefined,
                                                "left": 0,
                                                "opacity": 0,
                                                "paddingHorizontal": 12,
                                                "position": "absolute",
                                                "textAlign": "left",
                                                "top": 34,
                                                "transform": Array [
                                                  Object {
                                                    "translateX": 0,
                                                  },
                                                  Object {
                                                    "translateY": -16,
                                                  },
                                                  Object {
                                                    "scale": 0.75,
                                                  },
                                                ],
                                                "writingDirection": "ltr",
                                              }
                                            }
                                          >
                                            Vorname
                                          </Text>
                                        </View>
                                        <TextInput
                                          accessibilityLabel="Vorname"
                                          allowFontScaling={true}
                                          editable={true}
                                          multiline={false}
                                          placeholder=""
                                          placeholderTextColor="rgba(0, 0, 0, 0.54)"
                                          rejectResponderTermination={true}
                                          selectionColor="#6200ee"
                                          style={
                                            Array [
                                              Object {
                                                "flexGrow": 1,
                                                "margin": 0,
                                                "textAlign": "left",
                                                "zIndex": 1,
                                              },
                                              Object {
                                                "paddingHorizontal": 12,
                                              },
                                              Object {
                                                "height": 64,
                                              },
                                              Object {
                                                "paddingBottom": 4,
                                                "paddingTop": 24,
                                              },
                                              Object {
                                                "color": "#000000",
                                                "fontFamily": "System",
                                                "fontSize": 16,
                                                "fontWeight": undefined,
                                                "textAlignVertical": "center",
                                              },
                                            ]
                                          }
                                          underlineColorAndroid="transparent"
                                          value="Samuel"
                                        />
                                      </View>
                                    </View>
                                    <View
                                      style={
                                        Array [
                                          Object {
                                            "backgroundColor": "rgb(231, 231, 231)",
                                            "borderTopLeftRadius": 4,
                                            "borderTopRightRadius": 4,
                                          },
                                          Object {
                                            "width": 300,
                                          },
                                        ]
                                      }
                                    >
                                      <View
                                        style={
                                          Object {
                                            "backgroundColor": "rgba(0, 0, 0, 0.26)",
                                            "bottom": 0,
                                            "height": 2,
                                            "left": 0,
                                            "position": "absolute",
                                            "right": 0,
                                            "transform": Array [
                                              Object {
                                                "scaleY": 0.5,
                                              },
                                            ],
                                          }
                                        }
                                      />
                                      <View
                                        style={
                                          Object {
                                            "minHeight": 64,
                                            "paddingBottom": 0,
                                            "paddingTop": 0,
                                          }
                                        }
                                      >
                                        <View
                                          pointerEvents="none"
                                          style={
                                            Object {
                                              "bottom": 0,
                                              "left": 0,
                                              "opacity": 0,
                                              "position": "absolute",
                                              "right": 0,
                                              "top": 0,
                                              "transform": Array [
                                                Object {
                                                  "translateX": 3,
                                                },
                                              ],
                                            }
                                          }
                                        >
                                          <Text
                                            numberOfLines={1}
                                            style={
                                              Object {
                                                "color": "#6200ee",
                                                "fontFamily": "System",
                                                "fontSize": 16,
                                                "fontWeight": undefined,
                                                "left": 0,
                                                "opacity": 0,
                                                "paddingHorizontal": 12,
                                                "position": "absolute",
                                                "textAlign": "left",
                                                "top": 34,
                                                "transform": Array [
                                                  Object {
                                                    "translateX": 0,
                                                  },
                                                  Object {
                                                    "translateY": -16,
                                                  },
                                                  Object {
                                                    "scale": 0.75,
                                                  },
                                                ],
                                                "writingDirection": "ltr",
                                              }
                                            }
                                          >
                                            E-Mail
                                          </Text>
                                          <Text
                                            numberOfLines={1}
                                            style={
                                              Object {
                                                "color": "rgba(0, 0, 0, 0.54)",
                                                "fontFamily": "System",
                                                "fontSize": 16,
                                                "fontWeight": undefined,
                                                "left": 0,
                                                "opacity": 0,
                                                "paddingHorizontal": 12,
                                                "position": "absolute",
                                                "textAlign": "left",
                                                "top": 34,
                                                "transform": Array [
                                                  Object {
                                                    "translateX": 0,
                                                  },
                                                  Object {
                                                    "translateY": -16,
                                                  },
                                                  Object {
                                                    "scale": 0.75,
                                                  },
                                                ],
                                                "writingDirection": "ltr",
                                              }
                                            }
                                          >
                                            E-Mail
                                          </Text>
                                        </View>
                                        <TextInput
                                          accessibilityLabel="E-Mail"
                                          allowFontScaling={true}
                                          autoCapitalize="none"
                                          editable={true}
                                          keyboardType="email-address"
                                          multiline={false}
                                          placeholder=""
                                          placeholderTextColor="rgba(0, 0, 0, 0.54)"
                                          rejectResponderTermination={true}
                                          selectionColor="#6200ee"
                                          style={
                                            Array [
                                              Object {
                                                "flexGrow": 1,
                                                "margin": 0,
                                                "textAlign": "left",
                                                "zIndex": 1,
                                              },
                                              Object {
                                                "paddingHorizontal": 12,
                                              },
                                              Object {
                                                "height": 64,
                                              },
                                              Object {
                                                "paddingBottom": 4,
                                                "paddingTop": 24,
                                              },
                                              Object {
                                                "color": "#000000",
                                                "fontFamily": "System",
                                                "fontSize": 16,
                                                "fontWeight": undefined,
                                                "textAlignVertical": "center",
                                              },
                                            ]
                                          }
                                          underlineColorAndroid="transparent"
                                          value="test@email.com"
                                        />
                                      </View>
                                    </View>
                                    <View
                                      style={
                                        Array [
                                          Object {
                                            "backgroundColor": "rgb(231, 231, 231)",
                                            "borderTopLeftRadius": 4,
                                            "borderTopRightRadius": 4,
                                          },
                                          Object {
                                            "width": 225,
                                          },
                                        ]
                                      }
                                    >
                                      <View
                                        style={
                                          Object {
                                            "backgroundColor": "rgba(0, 0, 0, 0.26)",
                                            "bottom": 0,
                                            "height": 2,
                                            "left": 0,
                                            "position": "absolute",
                                            "right": 0,
                                            "transform": Array [
                                              Object {
                                                "scaleY": 0.5,
                                              },
                                            ],
                                          }
                                        }
                                      />
                                      <View
                                        style={
                                          Object {
                                            "minHeight": 64,
                                            "paddingBottom": 0,
                                            "paddingTop": 0,
                                          }
                                        }
                                      >
                                        <View
                                          pointerEvents="none"
                                          style={
                                            Object {
                                              "bottom": 0,
                                              "left": 0,
                                              "opacity": 0,
                                              "position": "absolute",
                                              "right": 0,
                                              "top": 0,
                                              "transform": Array [
                                                Object {
                                                  "translateX": 3,
                                                },
                                              ],
                                            }
                                          }
                                        >
                                          <Text
                                            numberOfLines={1}
                                            style={
                                              Object {
                                                "color": "#6200ee",
                                                "fontFamily": "System",
                                                "fontSize": 16,
                                                "fontWeight": undefined,
                                                "left": 0,
                                                "opacity": 0,
                                                "paddingHorizontal": 12,
                                                "position": "absolute",
                                                "textAlign": "left",
                                                "top": 34,
                                                "transform": Array [
                                                  Object {
                                                    "translateX": 0,
                                                  },
                                                  Object {
                                                    "translateY": -16,
                                                  },
                                                  Object {
                                                    "scale": 0.75,
                                                  },
                                                ],
                                                "writingDirection": "ltr",
                                              }
                                            }
                                          >
                                            Kanton
                                          </Text>
                                          <Text
                                            numberOfLines={1}
                                            style={
                                              Object {
                                                "color": "rgba(0, 0, 0, 0.54)",
                                                "fontFamily": "System",
                                                "fontSize": 16,
                                                "fontWeight": undefined,
                                                "left": 0,
                                                "opacity": 0,
                                                "paddingHorizontal": 12,
                                                "position": "absolute",
                                                "textAlign": "left",
                                                "top": 34,
                                                "transform": Array [
                                                  Object {
                                                    "translateX": 0,
                                                  },
                                                  Object {
                                                    "translateY": -16,
                                                  },
                                                  Object {
                                                    "scale": 0.75,
                                                  },
                                                ],
                                                "writingDirection": "ltr",
                                              }
                                            }
                                          >
                                            Kanton
                                          </Text>
                                        </View>
                                        <TextInput
                                          accessibilityLabel="Kanton"
                                          allowFontScaling={true}
                                          editable={true}
                                          multiline={false}
                                          placeholder=""
                                          placeholderTextColor="rgba(0, 0, 0, 0.54)"
                                          rejectResponderTermination={true}
                                          selectionColor="#6200ee"
                                          style={
                                            Array [
                                              Object {
                                                "flexGrow": 1,
                                                "margin": 0,
                                                "textAlign": "left",
                                                "zIndex": 1,
                                              },
                                              Object {
                                                "paddingHorizontal": 12,
                                              },
                                              Object {
                                                "height": 64,
                                              },
                                              Object {
                                                "paddingBottom": 4,
                                                "paddingTop": 24,
                                              },
                                              Object {
                                                "color": "#000000",
                                                "fontFamily": "System",
                                                "fontSize": 16,
                                                "fontWeight": undefined,
                                                "textAlignVertical": "center",
                                              },
                                            ]
                                          }
                                          underlineColorAndroid="transparent"
                                          value="AG"
                                        />
                                      </View>
                                    </View>
                                  </View>
                                  <View
                                    style={
                                      Object {
                                        "alignItems": "center",
                                        "display": "flex",
                                        "flexDirection": "row",
                                        "justifyContent": "flex-start",
                                        "marginVertical": 10,
                                      }
                                    }
                                  >
                                    <View
                                      style={
                                        Array [
                                          Object {
                                            "backgroundColor": "rgb(231, 231, 231)",
                                            "borderTopLeftRadius": 4,
                                            "borderTopRightRadius": 4,
                                          },
                                          Object {
                                            "width": 375,
                                          },
                                        ]
                                      }
                                    >
                                      <View
                                        style={
                                          Object {
                                            "backgroundColor": "rgba(0, 0, 0, 0.26)",
                                            "bottom": 0,
                                            "height": 2,
                                            "left": 0,
                                            "position": "absolute",
                                            "right": 0,
                                            "transform": Array [
                                              Object {
                                                "scaleY": 0.5,
                                              },
                                            ],
                                          }
                                        }
                                      />
                                      <View
                                        style={
                                          Object {
                                            "minHeight": 64,
                                            "paddingBottom": 0,
                                            "paddingTop": 0,
                                          }
                                        }
                                      >
                                        <View
                                          pointerEvents="none"
                                          style={
                                            Object {
                                              "bottom": 0,
                                              "left": 0,
                                              "opacity": 0,
                                              "position": "absolute",
                                              "right": 0,
                                              "top": 0,
                                              "transform": Array [
                                                Object {
                                                  "translateX": 3,
                                                },
                                              ],
                                            }
                                          }
                                        >
                                          <Text
                                            numberOfLines={1}
                                            style={
                                              Object {
                                                "color": "#6200ee",
                                                "fontFamily": "System",
                                                "fontSize": 16,
                                                "fontWeight": undefined,
                                                "left": 0,
                                                "opacity": 0,
                                                "paddingHorizontal": 12,
                                                "position": "absolute",
                                                "textAlign": "left",
                                                "top": 34,
                                                "transform": Array [
                                                  Object {
                                                    "translateX": 0,
                                                  },
                                                  Object {
                                                    "translateY": -16,
                                                  },
                                                  Object {
                                                    "scale": 0.75,
                                                  },
                                                ],
                                                "writingDirection": "ltr",
                                              }
                                            }
                                          >
                                            Benutzername
                                          </Text>
                                          <Text
                                            numberOfLines={1}
                                            style={
                                              Object {
                                                "color": "rgba(0, 0, 0, 0.54)",
                                                "fontFamily": "System",
                                                "fontSize": 16,
                                                "fontWeight": undefined,
                                                "left": 0,
                                                "opacity": 0,
                                                "paddingHorizontal": 12,
                                                "position": "absolute",
                                                "textAlign": "left",
                                                "top": 34,
                                                "transform": Array [
                                                  Object {
                                                    "translateX": 0,
                                                  },
                                                  Object {
                                                    "translateY": -16,
                                                  },
                                                  Object {
                                                    "scale": 0.75,
                                                  },
                                                ],
                                                "writingDirection": "ltr",
                                              }
                                            }
                                          >
                                            Benutzername
                                          </Text>
                                        </View>
                                        <TextInput
                                          accessibilityLabel="Benutzername"
                                          allowFontScaling={true}
                                          autoCapitalize="none"
                                          editable={true}
                                          multiline={false}
                                          placeholder=""
                                          placeholderTextColor="rgba(0, 0, 0, 0.54)"
                                          rejectResponderTermination={true}
                                          selectionColor="#6200ee"
                                          style={
                                            Array [
                                              Object {
                                                "flexGrow": 1,
                                                "margin": 0,
                                                "textAlign": "left",
                                                "zIndex": 1,
                                              },
                                              Object {
                                                "paddingHorizontal": 12,
                                              },
                                              Object {
                                                "height": 64,
                                              },
                                              Object {
                                                "paddingBottom": 4,
                                                "paddingTop": 24,
                                              },
                                              Object {
                                                "color": "#000000",
                                                "fontFamily": "System",
                                                "fontSize": 16,
                                                "fontWeight": undefined,
                                                "textAlignVertical": "center",
                                              },
                                            ]
                                          }
                                          underlineColorAndroid="transparent"
                                          value="test"
                                        />
                                      </View>
                                    </View>
                                    <View
                                      style={
                                        Array [
                                          Object {
                                            "backgroundColor": "rgb(231, 231, 231)",
                                            "borderTopLeftRadius": 4,
                                            "borderTopRightRadius": 4,
                                          },
                                          Object {
                                            "width": 375,
                                          },
                                        ]
                                      }
                                    >
                                      <View
                                        style={
                                          Object {
                                            "backgroundColor": "rgba(0, 0, 0, 0.26)",
                                            "bottom": 0,
                                            "height": 2,
                                            "left": 0,
                                            "position": "absolute",
                                            "right": 0,
                                            "transform": Array [
                                              Object {
                                                "scaleY": 0.5,
                                              },
                                            ],
                                          }
                                        }
                                      />
                                      <View
                                        style={
                                          Object {
                                            "minHeight": 64,
                                            "paddingBottom": 0,
                                            "paddingTop": 0,
                                          }
                                        }
                                      >
                                        <View
                                          pointerEvents="none"
                                          style={
                                            Object {
                                              "bottom": 0,
                                              "left": 0,
                                              "opacity": 1,
                                              "position": "absolute",
                                              "right": 0,
                                              "top": 0,
                                              "transform": Array [
                                                Object {
                                                  "translateX": 0,
                                                },
                                              ],
                                            }
                                          }
                                        >
                                          <Text
                                            numberOfLines={1}
                                            style={
                                              Object {
                                                "color": "#6200ee",
                                                "fontFamily": "System",
                                                "fontSize": 16,
                                                "fontWeight": undefined,
                                                "left": 0,
                                                "opacity": 0,
                                                "paddingHorizontal": 12,
                                                "position": "absolute",
                                                "textAlign": "left",
                                                "top": 34,
                                                "transform": Array [
                                                  Object {
                                                    "translateX": 0,
                                                  },
                                                  Object {
                                                    "translateY": 0,
                                                  },
                                                  Object {
                                                    "scale": 1,
                                                  },
                                                ],
                                                "writingDirection": "ltr",
                                              }
                                            }
                                          >
                                            Neues Passwort
                                          </Text>
                                          <Text
                                            numberOfLines={1}
                                            style={
                                              Object {
                                                "color": "rgba(0, 0, 0, 0.54)",
                                                "fontFamily": "System",
                                                "fontSize": 16,
                                                "fontWeight": undefined,
                                                "left": 0,
                                                "opacity": 0,
                                                "paddingHorizontal": 12,
                                                "position": "absolute",
                                                "textAlign": "left",
                                                "top": 34,
                                                "transform": Array [
                                                  Object {
                                                    "translateX": 0,
                                                  },
                                                  Object {
                                                    "translateY": 0,
                                                  },
                                                  Object {
                                                    "scale": 1,
                                                  },
                                                ],
                                                "writingDirection": "ltr",
                                              }
                                            }
                                          >
                                            Neues Passwort
                                          </Text>
                                        </View>
                                        <TextInput
                                          accessibilityLabel="Neues Passwort"
                                          allowFontScaling={true}
                                          autoCapitalize="none"
                                          editable={true}
                                          multiline={false}
                                          placeholder=""
                                          placeholderTextColor="rgba(0, 0, 0, 0.54)"
                                          rejectResponderTermination={true}
                                          secureTextEntry={true}
                                          selectionColor="#6200ee"
                                          style={
                                            Array [
                                              Object {
                                                "flexGrow": 1,
                                                "margin": 0,
                                                "textAlign": "left",
                                                "zIndex": 1,
                                              },
                                              Object {
                                                "paddingHorizontal": 12,
                                              },
                                              Object {
                                                "height": 64,
                                              },
                                              Object {
                                                "paddingBottom": 4,
                                                "paddingTop": 24,
                                              },
                                              Object {
                                                "color": "#000000",
                                                "fontFamily": "System",
                                                "fontSize": 16,
                                                "fontWeight": undefined,
                                                "textAlignVertical": "center",
                                              },
                                            ]
                                          }
                                          underlineColorAndroid="transparent"
                                        />
                                      </View>
                                    </View>
                                  </View>
                                  <Text
                                    style={
                                      Array [
                                        Object {
                                          "color": "#000000",
                                          "fontFamily": "System",
                                          "fontWeight": "400",
                                          "textAlign": "left",
                                        },
                                        undefined,
                                      ]
                                    }
                                  >
                                    Alter
                                  </Text>
                                  <View
                                    style={
                                      Object {
                                        "height": 44,
                                      }
                                    }
                                  >
                                    <RCTPicker
                                      items={
                                        Array [
                                          Object {
                                            "label": "0 bis 25",
                                            "textColor": undefined,
                                            "value": "jung",
                                          },
                                          Object {
                                            "label": "26 bis 50",
                                            "textColor": undefined,
                                            "value": "mittel",
                                          },
                                          Object {
                                            "label": "51 bis 75",
                                            "textColor": undefined,
                                            "value": "alt",
                                          },
                                          Object {
                                            "label": "76 bis 100",
                                            "textColor": undefined,
                                            "value": "sehr_alt",
                                          },
                                        ]
                                      }
                                      selectedIndex={0}
                                      style={
                                        Array [
                                          Object {
                                            "height": 216,
                                          },
                                          Object {
                                            "height": 44,
                                          },
                                        ]
                                      }
                                    />
                                  </View>
                                  <Text
                                    style={
                                      Array [
                                        Object {
                                          "color": "#000000",
                                          "fontFamily": "System",
                                          "fontWeight": "400",
                                          "textAlign": "left",
                                        },
                                        undefined,
                                      ]
                                    }
                                  >
                                    Geschlecht
                                  </Text>
                                  <View
                                    style={
                                      Object {
                                        "height": 44,
                                      }
                                    }
                                  >
                                    <RCTPicker
                                      items={
                                        Array [
                                          Object {
                                            "label": "Männlich",
                                            "textColor": undefined,
                                            "value": "M",
                                          },
                                          Object {
                                            "label": "Weiblich",
                                            "textColor": undefined,
                                            "value": "W",
                                          },
                                          Object {
                                            "label": "Anderes",
                                            "textColor": undefined,
                                            "value": "A",
                                          },
                                        ]
                                      }
                                      selectedIndex={1}
                                      style={
                                        Array [
                                          Object {
                                            "height": 216,
                                          },
                                          Object {
                                            "height": 44,
                                          },
                                        ]
                                      }
                                    />
                                  </View>
                                  <View
                                    style={
                                      Object {
                                        "backgroundColor": "#6200ee",
                                        "borderColor": "transparent",
                                        "borderRadius": 4,
                                        "borderStyle": "solid",
                                        "borderWidth": 0,
                                        "elevation": 2,
                                        "marginVertical": 8,
                                        "minWidth": 64,
                                        "shadowColor": "#000000",
                                        "shadowOffset": Object {
                                          "height": 0.75,
                                          "width": 0,
                                        },
                                        "shadowOpacity": 0.24,
                                        "shadowRadius": 1.5,
                                      }
                                    }
                                  >
                                    <View
                                      accessibilityLabel="Speichern"
                                      accessibilityRole="button"
                                      accessible={true}
                                      focusable={true}
                                      style={
                                        Array [
                                          Object {
                                            "overflow": "hidden",
                                          },
                                          Object {
                                            "borderRadius": 4,
                                          },
                                        ]
                                      }
                                    >
                                      <View
                                        style={
                                          Array [
                                            Object {
                                              "alignItems": "center",
                                              "flexDirection": "row",
                                              "justifyContent": "center",
                                            },
                                            undefined,
                                          ]
                                        }
                                      >
                                        <Text
                                          numberOfLines={1}
                                          style={
                                            Array [
                                              Object {
                                                "color": "#000000",
                                                "fontFamily": "System",
                                                "fontWeight": "400",
                                                "textAlign": "left",
                                              },
                                              Array [
                                                Object {
                                                  "letterSpacing": 1,
                                                  "marginHorizontal": 16,
                                                  "marginVertical": 9,
                                                  "textAlign": "center",
                                                },
                                                undefined,
                                                Object {
                                                  "textTransform": "uppercase",
                                                },
                                                Object {
                                                  "color": "#ffffff",
                                                  "fontFamily": "System",
                                                  "fontWeight": "500",
                                                },
                                                Object {
                                                  "fontFamily": "System",
                                                  "fontWeight": "500",
                                                },
                                                undefined,
                                              ],
                                            ]
                                          }
                                        >
                                          Speichern
                                        </Text>
                                      </View>
                                    </View>
                                  </View>
                                  <View
                                    style={
                                      Object {
                                        "backgroundColor": "transparent",
                                        "borderColor": "rgba(0, 0, 0, 0.29)",
                                        "borderRadius": 4,
                                        "borderStyle": "solid",
                                        "borderWidth": 0.5,
                                        "elevation": 0,
                                        "marginVertical": 8,
                                        "minWidth": 64,
                                      }
                                    }
                                  >
                                    <View
                                      accessibilityLabel="Account wechseln"
                                      accessibilityRole="button"
                                      accessible={true}
                                      focusable={true}
                                      style={
                                        Array [
                                          Object {
                                            "overflow": "hidden",
                                          },
                                          Object {
                                            "borderRadius": 4,
                                          },
                                        ]
                                      }
                                    >
                                      <View
                                        style={
                                          Array [
                                            Object {
                                              "alignItems": "center",
                                              "flexDirection": "row",
                                              "justifyContent": "center",
                                            },
                                            undefined,
                                          ]
                                        }
                                      >
                                        <Text
                                          numberOfLines={1}
                                          style={
                                            Array [
                                              Object {
                                                "color": "#000000",
                                                "fontFamily": "System",
                                                "fontWeight": "400",
                                                "textAlign": "left",
                                              },
                                              Array [
                                                Object {
                                                  "letterSpacing": 1,
                                                  "marginHorizontal": 16,
                                                  "marginVertical": 9,
                                                  "textAlign": "center",
                                                },
                                                undefined,
                                                Object {
                                                  "textTransform": "uppercase",
                                                },
                                                Object {
                                                  "color": "#6200ee",
                                                  "fontFamily": "System",
                                                  "fontWeight": "500",
                                                },
                                                Object {
                                                  "fontFamily": "System",
                                                  "fontWeight": "500",
                                                },
                                                undefined,
                                              ],
                                            ]
                                          }
                                        >
                                          Account wechseln
                                        </Text>
                                      </View>
                                    </View>
                                  </View>
                                  <View
                                    style={
                                      Object {
                                        "backgroundColor": "transparent",
                                        "borderColor": "rgba(0, 0, 0, 0.29)",
                                        "borderRadius": 4,
                                        "borderStyle": "solid",
                                        "borderWidth": 0.5,
                                        "elevation": 0,
                                        "marginVertical": 8,
                                        "minWidth": 64,
                                      }
                                    }
                                  >
                                    <View
                                      accessibilityLabel="Account löschen"
                                      accessibilityRole="button"
                                      accessible={true}
                                      focusable={true}
                                      style={
                                        Array [
                                          Object {
                                            "overflow": "hidden",
                                          },
                                          Object {
                                            "borderRadius": 4,
                                          },
                                        ]
                                      }
                                    >
                                      <View
                                        style={
                                          Array [
                                            Object {
                                              "alignItems": "center",
                                              "flexDirection": "row",
                                              "justifyContent": "center",
                                            },
                                            undefined,
                                          ]
                                        }
                                      >
                                        <Text
                                          numberOfLines={1}
                                          style={
                                            Array [
                                              Object {
                                                "color": "#000000",
                                                "fontFamily": "System",
                                                "fontWeight": "400",
                                                "textAlign": "left",
                                              },
                                              Array [
                                                Object {
                                                  "letterSpacing": 1,
                                                  "marginHorizontal": 16,
                                                  "marginVertical": 9,
                                                  "textAlign": "center",
                                                },
                                                undefined,
                                                Object {
                                                  "textTransform": "uppercase",
                                                },
                                                Object {
                                                  "color": "red",
                                                  "fontFamily": "System",
                                                  "fontWeight": "500",
                                                },
                                                Object {
                                                  "fontFamily": "System",
                                                  "fontWeight": "500",
                                                },
                                                undefined,
                                              ],
                                            ]
                                          }
                                        >
                                          Account löschen
                                        </Text>
                                      </View>
                                    </View>
                                  </View>
                                </View>
                              </RCTScrollView>
                              <View
                                style={
                                  Object {
                                    "backgroundColor": "transparent",
                                    "borderColor": "transparent",
                                    "borderRadius": 4,
                                    "borderStyle": "solid",
                                    "borderWidth": 0,
                                    "elevation": 0,
                                    "marginVertical": 8,
                                    "minWidth": "50%",
                                  }
                                }
                              >
                                <View
                                  accessibilityLabel="Meine Daten anfordern"
                                  accessibilityRole="button"
                                  accessible={true}
                                  focusable={true}
                                  style={
                                    Array [
                                      Object {
                                        "overflow": "hidden",
                                      },
                                      Object {
                                        "borderRadius": 4,
                                      },
                                    ]
                                  }
                                >
                                  <View
                                    style={
                                      Array [
                                        Object {
                                          "alignItems": "center",
                                          "flexDirection": "row",
                                          "justifyContent": "center",
                                        },
                                        undefined,
                                      ]
                                    }
                                  >
                                    <Text
                                      numberOfLines={1}
                                      style={
                                        Array [
                                          Object {
                                            "color": "#000000",
                                            "fontFamily": "System",
                                            "fontWeight": "400",
                                            "textAlign": "left",
                                          },
                                          Array [
                                            Object {
                                              "letterSpacing": 1,
                                              "marginHorizontal": 16,
                                              "marginVertical": 9,
                                              "textAlign": "center",
                                            },
                                            undefined,
                                            Object {
                                              "textTransform": "uppercase",
                                            },
                                            Object {
                                              "color": "#6200ee",
                                              "fontFamily": "System",
                                              "fontWeight": "500",
                                            },
                                            Object {
                                              "fontFamily": "System",
                                              "fontWeight": "500",
                                            },
                                            undefined,
                                          ],
                                        ]
                                      }
                                    >
                                      Meine Daten anfordern
                                    </Text>
                                  </View>
                                </View>
                              </View>
                              <View
                                style={
                                  Object {
                                    "backgroundColor": "transparent",
                                    "borderColor": "transparent",
                                    "borderRadius": 4,
                                    "borderStyle": "solid",
                                    "borderWidth": 0,
                                    "elevation": 0,
                                    "marginVertical": 8,
                                    "minWidth": "50%",
                                  }
                                }
                              >
                                <View
                                  accessibilityRole="button"
                                  accessible={true}
                                  focusable={true}
                                  style={
                                    Array [
                                      Object {
                                        "overflow": "hidden",
                                      },
                                      Object {
                                        "borderRadius": 4,
                                      },
                                    ]
                                  }
                                >
                                  <View
                                    style={
                                      Array [
                                        Object {
                                          "alignItems": "center",
                                          "flexDirection": "row",
                                          "justifyContent": "center",
                                        },
                                        undefined,
                                      ]
                                    }
                                  >
                                    <Text
                                      numberOfLines={1}
                                      style={
                                        Array [
                                          Object {
                                            "color": "#000000",
                                            "fontFamily": "System",
                                            "fontWeight": "400",
                                            "textAlign": "left",
                                          },
                                          Array [
                                            Object {
                                              "letterSpacing": 1,
                                              "marginHorizontal": 16,
                                              "marginVertical": 9,
                                              "textAlign": "center",
                                            },
                                            undefined,
                                            Object {
                                              "textTransform": "uppercase",
                                            },
                                            Object {
                                              "color": "#6200ee",
                                              "fontFamily": "System",
                                              "fontWeight": "500",
                                            },
                                            Object {
                                              "fontFamily": "System",
                                              "fontWeight": "500",
                                            },
                                            undefined,
                                          ],
                                        ]
                                      }
                                    >
                                      Belohnungen
                                    </Text>
                                  </View>
                                </View>
                              </View>
                              <Text
                                style={
                                  Array [
                                    Object {
                                      "color": "#000000",
                                      "fontFamily": "System",
                                      "fontWeight": "400",
                                      "textAlign": "left",
                                    },
                                    Array [
                                      Object {
                                        "color": "rgba(0, 0, 0, 0.87)",
                                        "fontFamily": "System",
                                        "fontWeight": "400",
                                        "textAlign": "left",
                                        "writingDirection": "ltr",
                                      },
                                      Array [
                                        Object {
                                          "fontSize": 14,
                                          "letterSpacing": 0.25,
                                          "lineHeight": 20,
                                          "marginVertical": 2,
                                        },
                                        undefined,
                                      ],
                                      Array [
                                        Object {
                                          "fontSize": 14,
                                          "letterSpacing": 0.25,
                                          "lineHeight": 20,
                                          "marginVertical": 2,
                                        },
                                        undefined,
                                      ],
                                    ],
                                  ]
                                }
                              />
                            </View>
                          </RCTScrollView>
                        </View>
                      </View>
                    </View>
                  </View>
                </View>
              </View>
            </View>
          </View>
        </View>
      </RNCSafeAreaProvider>
    </View>
  </View>
  <View
    collapsable={false}
    pointerEvents="box-none"
    style={
      Object {
        "bottom": 0,
        "left": 0,
        "position": "absolute",
        "right": 0,
        "top": 0,
      }
    }
  />
</View>
`;

exports[`ManageAccountScreen-offline shows error when offline and no cached account available 1`] = `
<View
  collapsable={true}
  pointerEvents="box-none"
  style={
    Object {
      "flex": 1,
    }
  }
>
  <View
    collapsable={false}
    pointerEvents="box-none"
    style={
      Object {
        "flex": 1,
      }
    }
  >
    <View
      style={
        Object {
          "flex": 1,
        }
      }
    >
      <RNCSafeAreaProvider
        style={
          Array [
            Object {
              "flex": 1,
            },
            undefined,
          ]
        }
      >
        <View
          pointerEvents="box-none"
          style={
            Object {
              "zIndex": 1,
            }
          }
        >
          <View
            accessibilityElementsHidden={false}
            importantForAccessibility="auto"
            pointerEvents="box-none"
            style={null}
          >
            <View
              pointerEvents="box-none"
              style={
                Object {
                  "bottom": 0,
                  "left": 0,
                  "opacity": 1,
                  "position": "absolute",
                  "right": 0,
                  "top": 0,
                  "zIndex": 0,
                }
              }
            >
              <View
                style={
                  Object {
                    "backgroundColor": "rgb(255, 255, 255)",
                    "borderBottomColor": "rgb(216, 216, 216)",
                    "flex": 1,
                    "shadowColor": "rgb(216, 216, 216)",
                    "shadowOffset": Object {
                      "height": 0.5,
                      "width": 0,
                    },
                    "shadowOpacity": 0.85,
                    "shadowRadius": 0,
                  }
                }
              />
            </View>
            <View
              pointerEvents="box-none"
              style={
                Object {
                  "height": 64,
                  "maxHeight": undefined,
                  "minHeight": undefined,
                  "opacity": undefined,
                  "transform": undefined,
                }
              }
            >
              <View
                pointerEvents="none"
                style={
                  Object {
                    "height": 20,
                  }
                }
              />
              <View
                pointerEvents="box-none"
                style={
                  Object {
                    "alignItems": "center",
                    "flex": 1,
                    "flexDirection": "row",
                    "justifyContent": "center",
                  }
                }
              >
                <View
                  pointerEvents="box-none"
                  style={
                    Object {
                      "marginHorizontal": 16,
                      "opacity": 1,
                    }
                  }
                >
                  <Text
                    accessibilityRole="header"
                    aria-level="1"
                    numberOfLines={1}
                    style={
                      Object {
                        "color": "rgb(28, 28, 30)",
                        "fontSize": 17,
                        "fontWeight": "600",
                      }
                    }
                  >
                    testscreen
                  </Text>
                </View>
              </View>
            </View>
          </View>
        </View>
        <View
          style={
            Object {
              "flex": 1,
            }
          }
        >
          <View
            pointerEvents="box-none"
            style={
              Object {
                "bottom": 0,
                "left": 0,
                "position": "absolute",
                "right": 0,
                "top": 0,
              }
            }
          >
            <View
              collapsable={false}
              style={
                Object {
                  "opacity": 1,
                }
              }
            />
            <View
              accessibilityElementsHidden={false}
              closing={false}
              gestureVelocityImpact={0.3}
              importantForAccessibility="auto"
              pointerEvents="box-none"
              style={
                Array [
                  Object {
                    "overflow": undefined,
                  },
                  Object {
                    "bottom": 0,
                    "left": 0,
                    "position": "absolute",
                    "right": 0,
                    "top": 0,
                  },
                ]
              }
              transitionSpec={
                Object {
                  "close": Object {
                    "animation": "spring",
                    "config": Object {
                      "damping": 500,
                      "mass": 3,
                      "overshootClamping": true,
                      "restDisplacementThreshold": 10,
                      "restSpeedThreshold": 10,
                      "stiffness": 1000,
                    },
                  },
                  "open": Object {
                    "animation": "spring",
                    "config": Object {
                      "damping": 500,
                      "mass": 3,
                      "overshootClamping": true,
                      "restDisplacementThreshold": 10,
                      "restSpeedThreshold": 10,
                      "stiffness": 1000,
                    },
                  },
                }
              }
            >
              <View
                needsOffscreenAlphaCompositing={false}
                pointerEvents="box-none"
                style={
                  Object {
                    "flex": 1,
                  }
                }
              >
                <View
                  enabled={false}
                  hitSlop={
                    Object {
                      "right": -700,
                    }
                  }
                  maxDeltaY={20}
                  minOffsetX={5}
                >
                  <View
                    style={
                      Object {
                        "flex": 1,
                        "transform": Array [
                          Object {
                            "translateX": 0,
                          },
                          Object {
                            "translateX": 0,
                          },
                        ],
                      }
                    }
                  >
                    <View
                      pointerEvents="none"
                      style={
                        Object {
                          "backgroundColor": "rgb(242, 242, 242)",
                          "bottom": 0,
                          "left": 0,
                          "position": "absolute",
                          "shadowColor": "#000",
                          "shadowOffset": Object {
                            "height": 1,
                            "width": -1,
                          },
                          "shadowOpacity": 0.3,
                          "shadowRadius": 5,
                          "top": 0,
                          "width": 3,
                        }
                      }
                    />
                    <View
                      style={
                        Array [
                          Object {
                            "flex": 1,
                            "overflow": "hidden",
                          },
                          Array [
                            Object {
                              "backgroundColor": "rgb(242, 242, 242)",
                            },
                            undefined,
                          ],
                        ]
                      }
                    >
                      <View
                        style={
                          Object {
                            "flex": 1,
                            "flexDirection": "column-reverse",
                          }
                        }
                      >
                        <View
                          style={
                            Object {
                              "flex": 1,
                            }
                          }
                        >
                          <View
                            style={
                              Object {
                                "backgroundColor": "red",
                                "padding": 10,
                              }
                            }
                            testID="Fehleranzeige"
                          >
                            <Text
                              style={
                                Array [
                                  Object {
                                    "color": "#000000",
                                    "fontFamily": "System",
                                    "fontWeight": "400",
                                    "textAlign": "left",
                                  },
                                  Object {
                                    "color": "white",
                                  },
                                ]
                              }
                            >
                              Accountinformationen aktuell nicht verfügbar.
                            </Text>
                          </View>
                        </View>
                      </View>
                    </View>
                  </View>
                </View>
              </View>
            </View>
          </View>
        </View>
      </RNCSafeAreaProvider>
    </View>
  </View>
</View>
`;
