// Jest Snapshot v1, https://goo.gl/fbAQLP

exports[`MapItemTest renders 1`] = `
<View
  collapsable={true}
  pointerEvents="box-none"
  style={
    Object {
      "flex": 1,
    }
  }
>
  <View
    collapsable={false}
    pointerEvents="box-none"
    style={
      Object {
        "flex": 1,
      }
    }
  >
    <View
      accessibilityLabel="Bild: Jetzt retten"
      accessible={true}
      focusable={true}
      style={
        Array [
          false,
          undefined,
        ]
      }
    >
      <View
        style={
          Object {
            "height": "100%",
            "position": "relative",
            "width": "100%",
          }
        }
      >
        <Image
          source={
            Object {
              "uri": "http://localhost:8000/media/images/topics/megan-thomas-xMh_ww8HN_Q-unsplash_kyFmbg4.jpg",
            }
          }
          style={
            Object {
              "backgroundColor": "black",
              "height": "100%",
              "width": "100%",
            }
          }
        />
        <View
          style={
            Object {
              "backgroundColor": "rgba(0,0,0,0.3)",
              "left": 0,
              "paddingTop": 40,
              "position": "absolute",
              "right": 0,
              "shadowColor": "#000000",
              "shadowOffset": Object {
                "height": 3,
                "width": 0,
              },
              "shadowOpacity": 0.24,
              "shadowRadius": 4,
              "top": 0,
            }
          }
        >
          <View
            style={
              Object {
                "alignItems": "center",
              }
            }
            testID="view"
          >
            <Image
              source={1}
              style={
                Object {
                  "height": 70,
                  "width": 70,
                }
              }
            />
            <Text
              style={
                Array [
                  Object {
                    "fontSize": 22,
                    "marginBottom": 10,
                    "marginTop": 10,
                  },
                  Object {
                    "color": "white",
                  },
                ]
              }
            >
              Level undefined - undefined
            </Text>
          </View>
        </View>
        <View
          style={
            Object {
              "alignItems": "center",
              "backgroundColor": "rgba(0,0,0,0.3)",
              "bottom": 0,
              "display": "flex",
              "justifyContent": "flex-start",
              "left": 0,
              "paddingBottom": 90,
              "paddingHorizontal": 10,
              "paddingVertical": 10,
              "position": "absolute",
              "right": 0,
              "shadowColor": "#000000",
              "shadowOffset": Object {
                "height": 3,
                "width": 0,
              },
              "shadowOpacity": 0.24,
              "shadowRadius": 4,
            }
          }
        >
          <Text
            style={
              Array [
                Object {
                  "color": "#000000",
                  "fontFamily": "System",
                  "fontWeight": "400",
                  "textAlign": "left",
                },
                Array [
                  Object {
                    "color": "rgba(0, 0, 0, 0.87)",
                    "fontFamily": "System",
                    "fontWeight": "400",
                    "textAlign": "left",
                    "writingDirection": "ltr",
                  },
                  Array [
                    Object {
                      "fontSize": 24,
                      "letterSpacing": 0,
                      "lineHeight": 32,
                      "marginVertical": 2,
                    },
                    Object {
                      "color": "white",
                      "marginBottom": 10,
                    },
                  ],
                  Array [
                    Object {
                      "fontSize": 24,
                      "letterSpacing": 0,
                      "lineHeight": 32,
                      "marginVertical": 2,
                    },
                    Object {
                      "color": "white",
                      "marginBottom": 10,
                    },
                  ],
                ],
              ]
            }
          >
            Essen
          </Text>
          <View
            pointerEvents="auto"
            style={
              Object {
                "backgroundColor": "#006B2A",
                "borderRadius": 28,
                "elevation": 6,
                "marginHorizontal": 30,
                "marginVertical": 10,
                "opacity": 1,
                "shadowColor": "#000000",
                "shadowOffset": Object {
                  "height": 5,
                  "width": 0,
                },
                "shadowOpacity": 0.24,
                "shadowRadius": 6,
                "transform": Array [
                  Object {
                    "scale": 1,
                  },
                ],
              }
            }
          >
            <View
              accessibilityLabel="Jetzt retten"
              accessibilityRole="button"
              accessible={true}
              focusable={true}
              style={
                Array [
                  Object {
                    "overflow": "hidden",
                  },
                  Object {
                    "borderRadius": 28,
                  },
                ]
              }
            >
              <View
                pointerEvents="none"
                style={
                  Array [
                    Object {
                      "alignItems": "center",
                      "flexDirection": "row",
                      "justifyContent": "center",
                    },
                    Object {
                      "height": 48,
                      "paddingHorizontal": 16,
                    },
                  ]
                }
              >
                <Text
                  style={
                    Array [
                      Object {
                        "color": "#000000",
                        "fontFamily": "System",
                        "fontWeight": "400",
                        "textAlign": "left",
                      },
                      Array [
                        Object {
                          "marginHorizontal": 8,
                        },
                        Object {
                          "color": "#ffffff",
                          "fontFamily": "System",
                          "fontWeight": "500",
                        },
                      ],
                    ]
                  }
                >
                  JETZT RETTEN
                </Text>
              </View>
            </View>
          </View>
        </View>
      </View>
    </View>
  </View>
</View>
`;
