// Jest Snapshot v1, https://goo.gl/fbAQLP

exports[`ChallengeProgress renders with one progress 1`] = `
<View
  collapsable={false}
  pointerEvents="box-none"
  style={
    Object {
      "flex": 1,
    }
  }
>
  <View>
    <View
      style={
        Array [
          null,
          Object {
            "alignItems": "center",
            "display": "flex",
            "flexDirection": "column",
            "justifyContent": "center",
          },
        ]
      }
    >
      <View
        style={
          Array [
            Object {
              "alignItems": "center",
              "backgroundColor": "#86bfc2",
              "borderTopLeftRadius": 125,
              "borderTopRightRadius": 125,
              "height": 125,
              "justifyContent": "flex-end",
              "overflow": "hidden",
              "width": 250,
            },
            Object {},
          ]
        }
      >
        <View
          style={
            Array [
              Object {
                "backgroundColor": "#1a898f",
                "borderBottomRightRadius": 0,
                "borderRadius": 125,
                "borderTopRightRadius": 0,
                "height": 250,
                "left": 0,
                "position": "absolute",
                "top": 0,
                "transform": Array [
                  Object {
                    "translateX": 62.5,
                  },
                  Object {
                    "rotate": "-88.2deg",
                  },
                  Object {
                    "translateX": -62.5,
                  },
                ],
                "width": 125,
              },
              Object {},
            ]
          }
        />
        <View
          style={
            Array [
              Object {
                "alignItems": "center",
                "backgroundColor": "#ffffff",
                "borderTopLeftRadius": 125,
                "borderTopRightRadius": 125,
                "height": 62.5,
                "justifyContent": "flex-end",
                "overflow": "hidden",
                "paddingLeft": 3,
                "paddingRight": 3,
                "width": 125,
              },
              Object {},
            ]
          }
        >
          <Text
            numberOfLines={1}
            style={
              Array [
                Object {
                  "backgroundColor": "#ffffff",
                },
                Object {
                  "color": "#494F55",
                  "fontSize": 24,
                  "fontWeight": "bold",
                },
              ]
            }
          >
            1
            %
          </Text>
          <Text
            numberOfLines={1}
            style={
              Array [
                Object {
                  "backgroundColor": "#ffffff",
                },
                Object {
                  "color": "#838383",
                  "fontSize": 16,
                  "fontWeight": "bold",
                },
              ]
            }
          >
            1/100
          </Text>
        </View>
      </View>
    </View>
  </View>
</View>
`;

exports[`ChallengeProgress renders with two progress 1`] = `
<View
  collapsable={false}
  pointerEvents="box-none"
  style={
    Object {
      "flex": 1,
    }
  }
>
  <View>
    <View
      style={
        Array [
          null,
          Object {
            "alignItems": "center",
            "display": "flex",
            "flexDirection": "column",
            "justifyContent": "center",
          },
        ]
      }
    >
      <View
        style={
          Array [
            Object {
              "alignItems": "center",
              "backgroundColor": "#86bfc2",
              "borderTopLeftRadius": 125,
              "borderTopRightRadius": 125,
              "height": 125,
              "justifyContent": "flex-end",
              "overflow": "hidden",
              "width": 250,
            },
            Object {},
          ]
        }
      >
        <View
          style={
            Array [
              Object {
                "backgroundColor": "#1a898f",
                "borderBottomRightRadius": 0,
                "borderRadius": 125,
                "borderTopRightRadius": 0,
                "height": 250,
                "left": 0,
                "position": "absolute",
                "top": 0,
                "transform": Array [
                  Object {
                    "translateX": 62.5,
                  },
                  Object {
                    "rotate": "-86.4deg",
                  },
                  Object {
                    "translateX": -62.5,
                  },
                ],
                "width": 125,
              },
              Object {},
            ]
          }
        />
        <View
          style={
            Array [
              Object {
                "alignItems": "center",
                "backgroundColor": "#ffffff",
                "borderTopLeftRadius": 125,
                "borderTopRightRadius": 125,
                "height": 62.5,
                "justifyContent": "flex-end",
                "overflow": "hidden",
                "paddingLeft": 3,
                "paddingRight": 3,
                "width": 125,
              },
              Object {},
            ]
          }
        >
          <Text
            numberOfLines={1}
            style={
              Array [
                Object {
                  "backgroundColor": "#ffffff",
                },
                Object {
                  "color": "#494F55",
                  "fontSize": 24,
                  "fontWeight": "bold",
                },
              ]
            }
          >
            2
            %
          </Text>
          <Text
            numberOfLines={1}
            style={
              Array [
                Object {
                  "backgroundColor": "#ffffff",
                },
                Object {
                  "color": "#838383",
                  "fontSize": 16,
                  "fontWeight": "bold",
                },
              ]
            }
          >
            2/100
          </Text>
        </View>
      </View>
    </View>
  </View>
</View>
`;
